190121 Session3
…
# 변수형태 
# date, nummeric  
# "$", "," 사인제거
x1 <- wage[4]
x1 <- as.vector(sapply(x1, function(x1) if(is.character(x1)) gsub(",", "", x1) else(x1)))
wage[4] <- as.vector(sapply(x1, function(x1) if(is.character(x1)) gsub("\\$", "", x1) else(x1)))
# number, date parsing
wage[4:10] <- as.tibble(lapply(wage[4:10], parse_number))
wage[13] <- as.tibble(lapply(wage[13], parse_date))

데이터 확인

wage %>% print(width = Inf)

## # A tibble: 917 x 14
##    Below_or_Above Budget_Area     Below_Minimum_Wage Wage_Correction
##    <chr>          <chr>           <chr>                        <dbl>
##  1 Above          Services        Above Minimum Wage         -24051.
##  2 Above          Supply Chain    Above Minimum Wage         -16356.
##  3 Above          Operations      Above Minimum Wage         -25059.
##  4 Above          Services        Above Minimum Wage         -18387.
##  5 Below          Facilities      Below Minimum Wage           5344.
##  6 Above          Facilities      Above Minimum Wage         -20277.
##  7 Above          Services        Above Minimum Wage         -28622.
##  8 Above          Finance         Above Minimum Wage         -22982.
##  9 Above          Human Resources Above Minimum Wage         -18552.
## 10 Below          Facilities      Below Minimum Wage           5344.
##    Hrly_Correction Hrly_Rate_Bin_Size `Hrly_Correction_(bin)`
##              <dbl>              <dbl>                   <dbl>
##  1            24.0                 24                      24
##  2            21.1                 21                      21
##  3            24.4                 24                      24
##  4            21.9                 21                      21
##  5            15                   12                      15
##  6            22.6                 22                      22
##  7            25.7                 25                      25
##  8            23.6                 23                      23
##  9            22.0                 21                      21
## 10            15                   12                      15
##    `Hrly_Rate_(bin)` Hrly_Rate_Correction_Bin_Size Hrly_Rate    ID
##                <dbl>                         <dbl>     <dbl> <int>
##  1                24                            24      24.0   771
##  2                21                            21      21.1   166
##  3                24                            24      24.4   193
##  4                21                            21      21.9   280
##  5                12                            15      13     475
##  6                22                            22      22.6   674
##  7                25                            25      25.7   902
##  8                23                            23      23.6   447
##  9                21                            21      22.0   125
## 10                12                            15      13     474
##    레코드_수 Service_Dt Service_Time_in_Years
##        <int> <date>                     <dbl>
##  1         1 1979-04-30                  36.5
##  2         1 1979-08-28                  36.1
##  3         1 1980-01-07                  35.8
##  4         1 1980-02-15                  35.7
##  5         1 1981-04-19                  34.5
##  6         1 1981-08-10                  34.2
##  7         1 1981-08-22                  34.2
##  8         1 1982-04-23                  33.5
##  9         1 1982-10-25                  33.0
## 10         1 1983-04-11                  32.6
## # ... with 907 more rows
…
#새로운 임금, 근속연수 조정 후 Below/Above 재설정 -> NEW 변수, NEW_wage 데이터셋
NEW_wage <- wage %>% mutate(NEW = ifelse(Hrly_Rate < minimum_wage & Service_Time_in_Years > required_service, 
                                         "Below Minimum Wage", "Above Minimum Wage"))

# ((2)부서별 bar 차트 그리기 위한 데이터셋)
c <- NEW_wage %>% filter(NEW == "Below Minimum Wage") %>%   # 최저임금 이하의 직원
  group_by(Budget_Area) %>%    # 부서별 집계
  summarise(sum_Wage_Correction = sum(Wage_Correction), # 최저임금의 금전적 영향
            sum_Record = sum(`레코드_수`)) %>%          # 최저임금 미만의 직원
  arrange(desc(sum_Wage_Correction))   # 내림차순으로 정렬
endatalong <- gather(c, key = "measure", value = "value", c("sum_Wage_Correction", "sum_Record"))
endatalong

## # A tibble: 28 x 3
##    Budget_Area            measure                value
##    <chr>                  <chr>                  <dbl>
##  1 Facilities             sum_Wage_Correction  370483.
##  2 Services               sum_Wage_Correction  310118.
##  3 Legal                  sum_Wage_Correction   27191.
##  4 Logistics              sum_Wage_Correction   14158.
##  5 Human Resources        sum_Wage_Correction    5751.
##  6 Finance                sum_Wage_Correction    -226.
##  7 Purchasing             sum_Wage_Correction    -978.
##  8 Customer Service       sum_Wage_Correction   -4094.
##  9 Information Technology sum_Wage_Correction   -6329.
## 10 Research & Development sum_Wage_Correction   -7103.
## # ... with 18 more rows
…
